<?xml version="1.0" encoding="utf-8"?>
<!-- Generator: Adobe Illustrator 18.0.0, SVG Export Plug-In . SVG Version: 6.00 Build 0)  -->
<!DOCTYPE svg PUBLIC "-//W3C//DTD SVG 1.1//EN" "http://www.w3.org/Graphics/SVG/1.1/DTD/svg11.dtd">
<svg version="1.1" id="Layer_1" xmlns="http://www.w3.org/2000/svg" xmlns:xlink="http://www.w3.org/1999/xlink" x="0px" y="0px"
	 viewBox="0 246.6 841.9 102" enable-background="new 0 246.6 841.9 102" xml:space="preserve">
<g>
	<path d="M138.3,312c0.3-2,1.2-3.6,2.3-4.8c1.2-1,2.6-1.7,4.2-2c1.6-0.3,3.2-0.3,4.9,0.1c1.7,0.4,3.2,1,4.3,1.9
		c-1.6,0.9-2.9,2.2-3.9,3.6c-1,1.4-1.7,3-2.2,4.6c-0.4,1.6-0.6,3.3-0.4,5.1c0.1,1.7,0.6,3.3,1.4,4.8c1.4,2.3,3.3,3.9,5.9,4.9
		c2.6,0.9,5.5,1.3,8.5,1c3.2-0.3,6.4-1,9.7-2.2c3.3-1.2,6.4-2.7,9.3-4.6c2.9-1.9,5.4-4.1,7.4-6.5c2-2.5,3.3-5.1,4.1-7.8
		c0.6-2.5,0.4-4.5-0.1-6.2c-0.6-1.6-1.6-3-2.9-4.1s-2.9-1.9-4.6-2.3c-1.7-0.6-3.6-0.9-5.5-1.2c-1.9-0.1-3.8-0.3-5.5-0.3
		s-3.3,0-4.6,0l1.2-2.5c3.3-0.9,6.9-2.5,10.9-4.5s7.8-4.3,11.4-7.2c3.6-2.7,6.8-5.8,9.5-9.1c2.7-3.3,4.6-6.9,5.6-10.6
		c-2.3-1.6-5.1-2.6-8.2-3.3c-3.2-0.6-6.5-0.7-10.1-0.3c-3.6,0.4-7.2,1.3-10.9,2.6c-3.6,1.3-7.1,3.2-10.3,5.4
		c-3.2,2.3-6.2,4.9-8.8,8.2c-2.6,3.3-4.6,6.9-5.9,11c-1.3-1.2-2.6-2.3-3.6-3.6c-1.2-1.3-1.9-2.5-2.5-3.8c-0.6-1.3-0.7-2.6-0.7-4.2
		c0-1.4,0.6-3,1.4-4.6c2.2-3.2,5.2-5.8,9-8c3.8-2.2,7.8-3.8,12.3-4.9s9-1.9,13.7-2c4.8-0.3,9.1,0,13.5,0.7c4.2,0.7,8,1.7,11.3,3.3
		c3.3,1.4,5.8,3.5,7.2,5.8c1.6,2.3,1.7,4.9,0.6,7.7c-1.3,2.7-3.6,5.4-6.9,8c-3.3,2.6-7.7,5.2-12.9,7.7c-5.2,2.5-10.9,4.6-17.2,6.4
		c2.5-0.1,5.1-0.3,7.5-0.3c2.5,0,4.8,0.1,6.9,0.7c2.2,0.4,3.9,1.3,5.5,2.6c1.6,1.2,2.5,3,3,5.4c0.6,2.9,0.3,5.8-0.4,8.5
		c-0.9,2.7-2.2,5.4-4.1,7.8c-1.9,2.5-4.2,4.6-6.9,6.7c-2.7,2-5.8,3.8-9,5.1c-3.3,1.4-6.7,2.5-10.3,3.3c-3.6,0.7-7.2,1.2-10.9,1.2
		c-3.8,0-7.1-0.6-10.1-1.6s-5.6-2.6-7.8-4.6c-2-2-3.6-4.3-4.5-7.2C137.9,318.6,137.7,315.4,138.3,312z M154.2,313.7
		c1.2-2.6,2.6-5.5,4.2-8.5c1.6-3,3.3-6.2,5.2-9.4c1.9-3.2,3.8-6.4,5.6-9.5c2-3.2,3.9-6.1,5.8-9c1.9-2.7,3.8-5.4,5.5-7.7
		c1.7-2.3,3.2-4.2,4.6-5.8c0.7-0.9,1.6-1.4,2.7-1.6c1-0.3,2-0.3,3.2-0.1c1,0.1,2.2,0.4,3.2,0.7c1,0.4,2,0.7,2.7,1.2
		c-2.6,2.3-5.5,5.4-8.5,8.8c-3,3.5-6.1,7.2-9,11.1c-3,3.9-5.8,8-8.5,12.2c-2.7,4.1-5.2,8-7.2,11.6c-2.2,3.6-3.8,6.8-5.1,9.5
		c-1.3,2.7-1.9,4.8-1.9,6.1c-0.6-0.6-1.3-1.2-1.7-1.7c-0.6-0.6-1-1.2-1.3-1.9c-0.3-0.7-0.4-1.6-0.3-2.5
		C153.2,316.2,153.6,315,154.2,313.7z"/>
	<path d="M251.9,307.5c-1.2,0.9-2.5,1.7-3.8,2.6c-1.3,0.7-2.6,1.4-3.9,2c-1.3,0.6-2.6,1.2-3.8,1.4c-1.2,0.4-2.2,0.6-3,0.7
		c-1.6,2.5-3.3,4.6-5.4,6.4c-1.9,1.7-3.9,3.2-5.8,4.3c-1.9,1.2-3.8,1.9-5.6,2.2s-3.3,0.4-4.6,0.1c-1.2-0.3-2-0.9-2.7-1.9
		c-0.7-0.9-1.3-2-1.7-3.3c-0.4-1.3-0.7-2.6-1-4.2c-0.3-1.6-0.3-2.9-0.1-4.3c0-2.6,0.6-5.5,1.4-8.2c0.9-2.9,2.2-5.5,3.9-8.1
		c1.7-2.5,3.8-4.8,6.1-6.7c2.3-1.9,5.1-3.3,8-4.2c1-0.3,2-0.3,3-0.1c1,0.1,1.9,0.6,2.6,1.3c0.7,0.6,1.3,1.4,1.6,2.5
		c0.3,1,0.3,2.2,0,3.3c-2,0-4.2,0.3-6.2,1.2s-4.1,1.9-5.8,3.3c-1.9,1.4-3.5,3.2-5.1,5.1c-1.4,1.9-2.7,4.1-3.6,6.2
		c-0.9,2.2-1.4,4.3-1.7,6.7c-0.1,2.3,0,4.5,0.7,6.7c0.4,1,0.9,1.6,1.6,1.9c0.6,0.3,1.4,0.1,2.3-0.1c2-0.6,4.1-1.9,5.9-3.6
		s3.5-3.9,4.8-6.5c-1.7-0.6-2.7-1.4-3.5-2.6c-0.6-1.2-0.9-2.3-0.7-3.6c0.1-1.3,0.4-2.6,0.9-3.8c0.6-1.3,1.2-2.3,1.7-3
		c1.3-1.7,2.9-3.3,4.8-4.6c1.9-1.3,4.1-2.2,6.4-2.6c1.3,0.6,2,1.7,2.5,3.2c0.3,1.4,0.3,3,0.1,4.8c-0.3,1.7-0.7,3.5-1.4,5.2
		c-0.7,1.7-1.3,3.2-1.9,4.5c0.6,0,1.3-0.3,2.3-0.6c0.9-0.3,1.9-0.7,3-1.2c1-0.6,2.2-1.2,3.3-1.9c1.2-0.7,2.2-1.4,3.2-2.3
		L251.9,307.5z M233.4,301c-0.9,0.6-1.7,1.3-2.5,2.3c-0.7,1-1.3,2-1.6,3c-0.3,1-0.3,2-0.1,2.9c0.3,0.9,1,1.6,2,2
		c0.1-0.6,0.4-1.2,0.6-2c0.3-0.9,0.4-1.7,0.7-2.6c0.1-0.9,0.4-1.7,0.6-2.6c0.1-0.9,0.3-1.6,0.3-2.2L233.4,301z"/>
	<path d="M290.2,309.2c-2,2.5-4.3,4.8-6.8,6.9c-2.5,2.2-4.9,4.1-7.4,5.8s-4.8,2.9-6.9,3.9c-2.2,1-4.2,1.4-5.8,1.4
		c-1.3-1.2-2-2.9-1.9-5.2c0-2.3,0.7-5.1,1.9-8.1c-1.2,1.4-2.5,2.9-4.1,4.5c-1.6,1.6-3.2,3.2-4.8,4.5c-1.6,1.4-3.3,2.5-4.8,3.3
		c-1.6,0.9-2.9,1.2-4.2,1c-1.9-0.7-3-2.3-3.3-4.8c-0.3-2.5,0.1-5.2,1-8.5c1-3.2,2.5-6.5,4.3-9.8c1.9-3.5,4.2-6.5,6.8-9.3
		c2.6-2.7,5.2-4.8,8.2-6.4c2.9-1.4,5.8-1.9,8.7-1.2c1.2,0.4,2.2,1.3,2.9,2.3c0.7,1.2,0.9,2.3,0.9,3.5c0.6-1.2,1.6-2.7,2.7-4.6
		c1.2-1.9,2.5-3.9,3.8-5.9c1.3-2.2,2.7-4.2,4.2-6.4c1.4-2.2,2.7-4.1,3.9-5.9c1.2-1.7,2.3-3.2,3.2-4.5c0.9-1.2,1.4-1.9,1.7-2
		c1.2-0.9,2.3-1.3,3.3-1.6c1.2-0.3,2.2-0.3,3.2-0.1s1.9,0.3,2.7,0.7s1.7,0.7,2.5,1.2c-2.6,2.3-5.5,5.4-8.4,9
		c-2.9,3.6-5.9,7.4-8.8,11.4s-5.8,8.1-8.4,12.3s-5.1,8-7.1,11.4c-2,3.5-3.8,6.5-5.1,9c-1.3,2.5-2,4.1-2,4.9c1.4,0.1,3-0.1,4.9-0.9
		c1.9-0.7,3.8-1.7,5.8-3c2-1.3,4.1-2.9,6.1-4.6c2-1.7,3.9-3.6,5.6-5.6L290.2,309.2z M265.5,309.2c1.7-3.2,3.3-6.1,4.8-8.5
		c1.4-2.5,2.7-4.3,3.6-5.9c-1.2-0.9-2.5-1.2-4.1-1c-1.6,0.3-3.2,0.9-4.9,2c-1.7,1.2-3.6,2.6-5.5,4.3c-1.9,1.9-3.6,3.9-5.2,6.2
		c-1.6,2.3-3.2,4.8-4.5,7.4c-1.3,2.6-2.3,5.2-3,7.8c2.6-0.3,5.6-1.6,9-3.6C259.1,315.7,262.3,312.8,265.5,309.2z"/>
	<path d="M323.2,313.4c-3.3,3.5-6.8,6.4-10.6,8.8c-3.6,2.5-7.1,4.3-10.6,5.2c-1.2,4.1-2.5,7.7-3.8,10.6c-1.3,2.9-2.6,5.4-4.1,7.1
		c-1.4,1.9-3,3.2-4.8,3.9s-3.8,1-5.9,0.9c-1.2-0.1-2.2-0.4-3-1.2c-0.7-0.6-1.3-1.4-1.7-2.3c-0.4-0.9-0.6-1.9-0.6-2.9
		c0-1,0.1-2,0.6-2.9c0.6-1.4,1.4-2.9,2.7-4.3c1.3-1.4,2.7-2.7,4.3-3.9s3.3-2.3,5.1-3.3s3.5-1.9,5.2-2.5c0.4-1.6,1-3.2,1.4-4.8
		c0.6-1.6,1.2-3.2,1.7-4.6c-1,1.3-2.2,2.6-3.6,3.8c-1.3,1.2-2.7,2.3-4.2,3.2s-2.7,1.7-4.2,2.2c-1.3,0.6-2.6,0.9-3.6,0.9
		c-1.7-0.6-2.6-2-2.5-4.5c0-2.5,0.7-5.5,2.2-9.1c1.3-3.6,3.3-7.5,5.8-11.9c2.5-4.3,5.4-8.5,8.5-12.7c0.7-0.9,1.4-1.6,2.3-1.9
		c0.9-0.3,1.9-0.4,2.7-0.3s1.9,0.3,2.9,0.6c0.9,0.3,1.7,0.7,2.6,1.2c-3.6,4.1-6.8,7.8-9.7,11.6c-2.7,3.8-5.1,7.2-7.1,10.3
		c-1.9,3-3.5,5.8-4.5,8.1c-1,2.3-1.6,4.1-1.9,5.1c1.2-0.1,2.5-0.7,3.9-1.4c1.4-0.7,3-1.7,4.5-2.9c1.6-1.2,3-2.5,4.5-3.9
		c1.4-1.4,2.7-2.9,3.8-4.5c3.6-7.8,8.1-15,13.3-21.8c0.7-0.9,1.4-1.6,2.5-1.9c0.9-0.3,1.9-0.4,2.7-0.3c1,0.1,1.9,0.3,2.9,0.6
		c0.9,0.3,1.7,0.7,2.6,1.2c-3.2,3.5-5.9,6.7-8.2,9.8c-2.5,3-4.5,6.1-6.4,8.8c-2.2,3.3-3.9,6.4-5.2,9.3c-1.3,2.9-2.3,5.5-3.2,8.1
		c2.5-0.7,5.1-2.2,8.1-4.3s5.9-4.6,9-7.7L323.2,313.4z M295.3,329.6c-1.7,0.9-3.3,1.7-4.6,2.9c-1.4,1.2-2.6,2.2-3.6,3.3
		s-1.9,2-2.5,3c-0.6,0.9-1,1.6-1.3,2c-0.1,0.1-0.3,0.4-0.4,0.9c-0.1,0.4-0.3,0.9-0.3,1.3s0,0.9,0.1,1.3s0.4,0.7,0.7,1
		c0.9,0.6,1.7,0.4,2.9-0.1c1.2-0.7,2.2-1.7,3.3-3.2c1.2-1.4,2.2-3.3,3.2-5.4C293.8,334.4,294.6,332.1,295.3,329.6z"/>
	<path d="M409.7,264.2c0.9-1.4,2-2.5,3.2-3c1.2-0.6,2.3-0.7,3.6-0.6c1.2,0.1,2.3,0.4,3.5,1c1.2,0.6,2.2,1.2,3.2,1.7
		c-4.9,6.5-9.4,13-13.3,19.2c-3.9,6.4-7.4,12.2-10.1,17.5c-2.7,5.4-5.1,10-6.7,13.9c-1.6,3.9-2.6,6.9-2.9,8.7
		c3.2-0.4,6.5-1.7,9.8-3.8s6.7-4.6,9.8-7.8c3.2-3.2,6.4-6.8,9.3-10.9s5.6-8.4,8.1-13c2.5-4.6,4.6-9.3,6.4-14.2
		c1.7-4.9,3.2-9.7,4.1-14.5c3.2,0.3,5.6,1,7.1,2.2c1.4,1,2.3,2.3,2.5,3.9c0.1,1.4,0,3.2-0.7,5.1s-1.6,3.9-2.7,5.9
		c-4.3,7.8-8.8,14.5-13.2,20c-4.3,5.5-8.5,10.1-12.6,14c-4.1,3.8-7.8,6.8-11.3,9.1s-6.5,4.1-9.1,5.4s-4.8,2-6.4,2.5
		c-1.6,0.4-2.6,0.7-2.7,0.7c-1.9-0.7-2.7-2.6-2.7-5.8s0.7-7.2,2.2-12c-3.8,4.1-7.1,7.2-10.1,9.5c-3,2.3-5.6,4.2-7.8,5.4
		c-2.2,1.2-3.9,2-5.2,2.3c-1.3,0.3-2,0.6-2.3,0.6c-1.4-0.6-2.3-1.7-2.6-3.9c-0.3-2-0.1-4.6,0.4-7.8c0.6-3.2,1.6-6.7,3-10.7
		c1.4-4.1,3.2-8.2,5.2-12.7s4.3-9.1,6.9-13.7c2.6-4.6,5.4-9.3,8.2-13.9c-2.9,0.4-5.9,1.3-8.8,2.5s-5.6,2.7-8.2,4.5
		c-2.6,1.9-4.9,4.2-6.9,6.8c-2,2.6-3.6,5.5-4.9,8.8c-1.2-1-2.3-2-3.3-3.2c-1-1-1.7-2.2-2.3-3.3c-0.6-1.2-0.7-2.3-0.7-3.6
		s0.6-2.6,1.4-3.9c1.6-2,3.6-3.8,6.2-5.4c2.6-1.6,5.4-3,8.5-4.1c3-1.2,6.4-1.9,9.7-2.5c3.3-0.6,6.7-0.9,10-0.7
		c0.9,0,1.9,0.4,2.9,1.2c1,0.9,1.7,1.9,2.5,3c0.6,1.2,1,2.6,1.3,3.9c0.3,1.4,0.1,2.7-0.4,4.1c-3.9,5.6-7.5,11.1-10.6,16.5
		s-5.8,10.1-8,14.6c-2.2,4.5-4.1,8.2-5.4,11.6c-1.3,3.3-2,5.8-2.3,7.4c2.5-0.3,5.2-1.6,8-3.6c2.9-2,5.6-4.6,8.4-7.5s5.4-6.2,7.8-9.5
		c2.5-3.5,4.5-6.8,6.2-9.8c2-4.5,4.3-9.1,6.9-13.9C403.9,273.5,406.8,268.7,409.7,264.2z"/>
	<path d="M465.4,309.6c-5.2,6.4-10.6,11-15.8,14s-10.1,4.6-14.5,4.8c-0.4,0-1.3,0-2.5-0.1c-1.2,0-2.3-0.3-3.6-0.9
		c-1.2-0.6-2.3-1.3-3.3-2.5s-1.4-2.7-1.3-4.9c0-1.7,0.6-3.5,1.6-5.4c1-1.9,2.5-3.6,4.2-5.2c1.7-1.6,3.8-3.2,6.1-4.5
		c2.3-1.3,4.6-2.3,7.1-2.9c-1.6-0.4-2.7-1.3-3.6-2.6c-0.7-1.3-1-2.6-0.7-4.2c0.3-1.4,1-3,2.5-4.5c1.3-1.4,3.3-2.6,5.8-3.5
		c1.7-0.6,3.6-0.7,5.6-0.6c2,0.1,3.6,0.7,5.1,1.6c1.4,0.9,2.3,2,2.9,3.5c0.6,1.4,0.3,3-0.7,4.8c-0.6,0.9-1.3,1.3-2.2,1.6
		c-0.7,0.3-1.6,0.4-2.3,0.3c-0.7,0-1.6-0.3-2.3-0.6c-0.7-0.3-1.4-0.7-2.2-1c0.9-0.6,1.7-1.2,2.5-2c0.7-0.9,1.2-1.6,1.4-2.5
		c0.3-0.7,0.3-1.4,0.1-2c-0.3-0.6-0.9-0.7-1.9-0.7c-1.7,0.1-3,0.7-4.1,1.9c-1,1.2-1.7,2.5-2.2,3.9c-0.3,1.4-0.3,2.6,0.1,3.8
		c0.4,1.2,1.4,1.6,2.7,1.4c1.6-0.1,2.7,0,3.6,0.6c0.7,0.6,1.2,1.2,1,1.9c-0.1,0.7-0.6,1.3-1.4,1.7c-0.9,0.4-2.2,0.4-3.8,0.1
		c-2,0.1-4.2,1-6.4,2.3c-2.2,1.4-4.1,3-5.8,4.9s-2.9,3.8-3.8,5.6c-0.9,1.9-1,3.5-0.6,4.6c0.6,1.2,1.7,1.9,3.6,2
		c1.9,0.3,4.2-0.1,6.9-1.2s5.9-2.7,9.4-5.2c3.5-2.5,6.9-5.8,10.6-9.8L465.4,309.6z"/>
	<path d="M482.1,310.8c-2,2.3-4.1,4.3-6.2,6.4c-2.2,2-4.3,3.8-6.4,5.2c-2.2,1.4-4.1,2.7-6.1,3.6c-1.9,0.9-3.6,1.3-5.2,1.3
		c-1.3-1.2-1.9-3-1.9-5.6c0.1-2.5,0.7-5.5,2-8.8c1.3-3.5,3-7.1,5.5-11.1c2.3-4.1,5.1-8.1,8.2-12.3c0.7-0.9,1.4-1.6,2.5-1.9
		c0.9-0.3,1.9-0.4,2.9-0.3c1,0.1,1.9,0.3,2.9,0.6c0.9,0.3,1.7,0.7,2.6,1.2c-3.6,4.1-6.8,7.8-9.5,11.6s-5.1,7.1-6.9,10.1
		c-1.9,3-3.3,5.6-4.3,8c-1,2.2-1.6,3.9-1.7,5.1c1.4,0.1,2.9-0.1,4.6-1c1.7-0.7,3.5-1.7,5.2-3.2c1.9-1.3,3.6-2.9,5.5-4.6
		c1.9-1.7,3.8-3.8,5.5-5.8L482.1,310.8z M480.3,282c0-0.9,0.3-2,0.7-3.3c0.4-1.3,1.2-2.6,1.9-3.9c0.7-1.3,1.4-2.6,2.3-3.8
		c0.9-1.2,1.6-2,2.3-2.5c0.9-0.6,2-0.9,3.3-0.6c1.4,0.3,2.6,0.7,3.9,1.3c1.2,0.6,2.2,1.3,2.9,2c0.7,0.7,0.7,1.2,0.3,1.4
		c-1.7,0.9-3.3,1.9-4.9,3c-1.6,1.2-2.9,2.2-4.2,3.3c-1.3,1.2-2.3,2.2-3.3,3.2c-0.9,1-1.6,1.7-2,2.3c-0.1,0.1-0.3,0.1-0.7,0
		c-0.3-0.1-0.7-0.4-1-0.7c-0.3-0.3-0.7-0.6-1-1C480.5,282.4,480.3,282.3,480.3,282z"/>
	<path d="M518.4,311c-2.3,1.7-4.9,2.9-7.5,3.3c-2.6,0.6-4.9,0.7-6.8,0.6c-1.9,2.5-4.5,4.3-7.5,5.6c-3.2,1.3-6.4,2-9.5,2.3l-1.9,3
		c2.3-0.6,4.6-0.7,6.8-0.1c2.2,0.4,4.1,1.3,5.4,2.7c1.3,1.4,1.9,3.2,1.9,5.5c0,2.3-1.2,5.1-3.3,8.1c-1.6,2.2-3.6,3.9-6.1,5.2
		s-5.4,1.6-8.7,1.2c-1.4-0.1-2.7-0.6-3.9-1.4c-1.2-0.7-2.3-1.6-3.3-2.6c-1-1-1.7-2-2.5-3c-0.6-1-1-1.9-1.3-2.7
		c-0.6-1.4-0.6-2.7-0.3-3.8c0.3-1.2,0.9-2,1.7-2.9c0.9-0.9,1.9-1.4,3.3-2.2c1.3-0.6,2.7-1.2,4.5-1.6c-1.2,3-1.7,5.9-1.6,8.7
		c0.1,2.7,0.9,4.8,1.9,6.4c1.2,1.6,2.6,2.5,4.5,2.7c1.9,0.1,3.9-0.6,5.9-2.5c1.2-1.3,1.7-2.9,1.9-4.8c0.1-1.9-0.1-3.6-0.7-5.2
		c-0.6-1.6-1.4-2.9-2.6-3.9c-1.2-1-2.3-1.3-3.6-1c-0.9,0.1-1.4,0.1-2,0.1s-0.9-0.1-1.2-0.4c-0.3-0.1-0.4-0.4-0.6-0.7
		c-0.1-0.3-0.1-0.6,0-0.9l3.3-4.3c-2.3-1-4.1-2.6-5.1-4.8s-1.4-4.8-1.3-7.5c0.1-2.7,0.7-5.6,1.9-8.5s2.7-5.6,4.8-8
		c2-2.5,4.5-4.3,7.2-5.8c2.7-1.4,5.9-2.2,9.4-2c1.2,0,2.2,0.4,3,0.9c0.7,0.6,1.3,1.3,1.7,2c0.4,0.9,0.6,1.7,0.6,2.6
		c0,1-0.1,1.9-0.3,2.6c-3.5,0.1-6.9,1.2-10.1,2.7c-3.2,1.6-5.9,3.6-8.1,6.1c-2.2,2.5-3.8,5.1-4.5,8c-0.9,2.9-0.6,5.6,0.7,8.2
		c0.3,0.6,0.9,1.2,1.7,1.4c0.9,0.3,1.7,0.4,2.7,0.1c1.6-0.4,3-1.2,4.3-2.5c1.3-1.2,2.5-2.6,3.5-4.2c-1-0.4-1.9-1-2.5-1.7
		c-0.6-0.7-1-1.6-1.2-2.6c-0.1-1-0.1-2,0-3c0.1-1.2,0.6-2.2,1.3-3.3c0.4-0.9,0.9-1.7,1.6-2.6c0.7-0.9,1.4-1.6,2.2-2.3
		s1.6-1.3,2.5-1.9c0.9-0.6,1.6-0.9,2.3-1.2c0.9,0,1.6,0.3,2.5,0.6c0.9,0.3,1.6,0.6,2.3,1.2c0.7,0.4,1.3,1,1.9,1.4
		c0.6,0.6,1,1.2,1.2,1.7c-0.1,1.6-0.7,3.3-1.7,5.4c-1,2-2.2,4.2-3.3,6.4c0.6,0,1.3,0,2.2,0c1,0,2-0.1,3.2-0.4
		c1.2-0.3,2.3-0.7,3.6-1.2c1.2-0.6,2.2-1.3,3.2-2.2L518.4,311z M501.3,300.1c-1,0.6-1.9,1.3-2.6,2.3c-0.7,1-1.3,2-1.7,3.2
		c-0.3,1.2-0.4,2.2-0.3,3.2c0.1,1,0.7,1.7,1.6,2.3c0.3-0.4,0.6-1.2,0.9-2c0.4-0.9,0.7-1.9,1-2.9s0.6-2,0.7-3.2
		C501.3,301.8,501.3,300.8,501.3,300.1z"/>
	<path d="M551.8,309.4c-2.2,2.6-4.3,4.9-6.5,7.1c-2.2,2.2-4.3,4.1-6.5,5.8c-2.2,1.6-4.2,2.9-6.2,3.8s-3.8,1.3-5.5,1.3
		c-1.2-0.7-2-1.9-2.6-3.3c-0.6-1.4-0.7-3.6-0.3-6.2c0.4-2.6,1.6-5.8,3.3-9.5c1.9-3.8,4.6-8.1,8.4-13.2c-1.6,1.2-3.3,2.9-5.5,5.2
		c-2,2.2-4.2,4.8-6.1,7.7s-3.8,5.9-5.5,9.3c-1.6,3.3-2.9,6.7-3.5,10.1c-1.3,0-2.3-0.3-3-0.7c-0.7-0.4-1.4-1.2-1.9-1.9
		c-0.4-0.7-0.7-1.6-0.9-2.5s-0.1-1.9-0.1-2.7c0.3-2.6,1-5.8,2.2-9.3c1.2-3.5,2.7-7.1,4.5-10.7c1.7-3.8,3.8-7.4,5.8-11.1
		s4.2-7.2,6.4-10.4c2-3.2,4.1-6.1,5.8-8.7c1.9-2.6,3.3-4.5,4.5-5.8c0.7-0.9,1.6-1.6,2.6-1.9c1-0.3,2.2-0.4,3.3-0.4s2.3,0.1,3.3,0.6
		c1,0.3,2,0.7,2.9,1.2c-1.7,1.7-3.6,3.8-5.8,6.2c-2,2.5-4.2,5.1-6.4,7.8s-4.3,5.6-6.4,8.8c-2.2,3-4.1,6.1-5.9,9.1
		c-1.9,3-3.5,5.9-4.8,8.7c-1.4,2.7-2.5,5.4-3.2,7.7c2.3-3.9,4.6-7.2,6.9-10c2.3-2.7,4.5-4.9,6.7-6.8c2-1.7,3.9-3.2,5.5-4.2
		c1.6-1,2.7-1.6,3.6-2.2c0.7-0.3,1.4-0.6,2.5-0.7c0.9-0.1,1.9-0.1,2.9,0s1.9,0.3,2.9,0.6c1,0.3,1.7,0.6,2.5,0.9
		c-3.6,4.1-6.8,7.8-9.5,11.6s-5.1,7.1-6.9,10.1c-1.9,3-3.3,5.6-4.3,8c-1,2.2-1.6,3.9-1.7,5.1c1.4,0.1,3-0.1,4.8-0.9s3.5-1.7,5.2-3.2
		c1.7-1.3,3.6-3,5.5-4.9c1.9-1.9,3.8-4.1,5.8-6.4L551.8,309.4z"/>
	<path d="M572.4,311c-2.2,2.3-4.5,4.5-6.8,6.5c-2.5,2-4.8,3.8-7.2,5.2c-2.3,1.4-4.6,2.6-6.8,3.5c-2.2,0.9-4.1,1.2-5.5,1.2
		c-0.6-0.6-1.2-1.2-1.6-1.9c-0.4-0.7-0.7-1.4-0.7-2.5s0.1-2.2,0.4-3.6c0.3-1.4,1-3.2,1.9-5.4c1.2-2.6,2.7-5.6,4.6-9.1
		c1.9-3.5,4.1-6.9,6.2-10.6c-3.3-0.3-5.1-0.4-5.1-0.3c0-0.7,0.1-1.6,0.6-2.5c0.4-1,1-1.6,2-1.7c1,0,1.9,0,2.6,0s1.6,0.1,2.6,0.1
		c2-3.2,3.9-6.2,5.9-9.3s3.8-5.6,5.4-8s2.9-4.3,4.1-5.8c1-1.6,1.7-2.5,2-2.7c0.7-0.9,1.6-1.4,2.6-1.7c1-0.3,2.2-0.3,3.2-0.1
		c1.2,0.1,2.2,0.4,3.2,0.7c1,0.4,2,0.9,2.7,1.2c-1.6,1.4-3.3,3.2-5.1,5.1c-1.7,2-3.6,4.1-5.4,6.4c-1.7,2.3-3.6,4.6-5.5,7.1
		c-1.9,2.5-3.6,5.1-5.5,7.7c1.2,0,1.9,0.1,2.5,0.1s1.3-0.1,2.3-0.4c0,0.3,0.1,0.6,0.3,1c0.1,0.4,0.1,0.9,0.1,1.3s-0.1,1-0.4,1.4
		c-0.3,0.4-0.7,1-1.3,1.3c-0.6,0.3-1.4,0.4-2.5,0.3c-1-0.1-2.3-0.3-4.2-0.3c-2.2,3.3-4.2,6.5-6.2,9.5c-1.9,3-3.6,5.8-5.1,8.4
		c-1.4,2.5-2.6,4.6-3.3,6.4c-0.9,1.7-1.3,2.9-1.3,3.5c1.3,0.1,2.9-0.1,4.8-0.9c1.9-0.7,3.8-1.6,5.8-2.7s4.2-2.6,6.2-4.3
		s4.1-3.5,5.9-5.4L572.4,311z"/>
	<path d="M603.2,263.8c1.7-2.5,4.1-4.5,6.9-6.1c2.9-1.6,6.1-2.9,9.7-3.8c3.6-0.9,7.5-1.6,11.7-1.9c4.2-0.3,8.5-0.4,12.9-0.1
		c3.6,0.1,7.4,0.3,11.1,0.3c3.8,0.1,7.7,0.1,11.3,0.1c3.8,0,7.4-0.1,10.9-0.3c3.5-0.1,6.7-0.4,9.5-0.9c2.9-0.4,5.5-1,7.8-1.7
		c2.3-0.7,4.1-1.7,5.4-2.9c0,1.7-0.1,3.5-0.4,5.1c-0.3,1.6-0.9,3.2-1.6,4.5c-0.9,1.3-2,2.3-3.6,3.2c-1.6,0.9-3.6,1.2-6.2,1.2
		c-4.3,0-8.8-0.3-13.7-0.9c-4.8-0.6-9.7-1.2-14.8-1.7c-5.1-0.6-10-1.2-14.9-1.6c-4.9-0.4-9.5-0.6-14-0.6c-4.5,0.1-8.5,0.6-12.3,1.6
		c-3.8,1-6.9,2.6-9.5,4.8c-1.4,1.3-2.5,2.7-3,4.2c-0.4,1.6-0.6,3-0.3,4.3c0.3,1.3,1,2.6,2,3.5c1,1,2.3,1.6,3.8,1.7
		c0.9,0.1,1.9,0,3-0.1c1.2-0.3,2.3-0.7,3.3-1.4c1-0.7,2.2-1.6,3.2-2.9c1-1.2,1.7-2.7,2.3-4.6c0.4,0.3,1,1,1.7,2.2
		c0.7,1,1.3,2.3,1.7,3.6c0.4,1.3,0.6,2.7,0.4,4.2c-0.1,1.4-1,2.7-2.3,3.9c-2.2,1.7-4.3,2.9-6.8,3.3c-2.3,0.4-4.6,0.4-6.7,0
		c-2.2-0.4-4.1-1.4-5.8-2.7s-3-2.9-4.1-4.6c-0.9-1.9-1.3-3.8-1.2-6.1C600.9,268.3,601.6,266.1,603.2,263.8z M608.4,320.9
		c-0.6,1.4-0.9,2.6-1,3.5c-0.1,1,0,1.9,0.3,2.6c0.3,0.7,0.7,1.4,1.3,2c0.6,0.6,1.2,1.2,1.7,1.7c0-1,0.4-2.6,1.3-4.6
		c0.9-2.2,2.2-4.6,3.8-7.7c1.6-2.9,3.5-6.2,5.5-9.7c2.2-3.5,4.3-7.2,6.8-10.9c2.5-3.8,4.9-7.5,7.7-11.1c2.6-3.8,5.2-7.2,7.8-10.7
		c2.6-3.3,5.1-6.4,7.5-9.1s4.6-5.1,6.5-6.8c-0.9-0.4-1.7-0.7-2.7-1.2c-1-0.3-2-0.6-3-0.7c-1-0.1-2.2,0-3.2,0.1c-1,0.3-2,0.7-2.9,1.4
		c-0.7,0.7-2,2.3-3.8,4.8c-1.7,2.5-3.9,5.6-6.4,9.3c-2.5,3.6-4.9,7.7-7.7,12c-2.7,4.3-5.4,8.7-7.8,13c-2.5,4.3-4.8,8.4-6.9,12.3
		C611.1,315,609.5,318.3,608.4,320.9z"/>
	<path d="M680.1,310.2c-2.3,2.3-4.6,4.6-7.2,6.8s-5.1,4.1-7.4,5.6c-2.3,1.6-4.5,2.9-6.5,3.6c-2,0.9-3.6,1.2-4.6,1
		c-1.2-1-1.9-2.6-1.9-4.6s0.3-4.3,1.3-7.1c0.9-2.7,2.2-5.6,4.1-9c1.7-3.3,3.9-6.8,6.5-10.4c-1.2,0-2.3-0.1-3-0.1
		c-0.9,0-1.7-0.1-2.9-0.6c-2.5,3.5-4.8,6.8-7.2,9.8c-2.3,3-4.5,5.9-6.1,8.5c-1.7,2.6-2.9,5.2-3.6,7.5c-0.7,2.3-0.6,4.6,0.3,6.7
		c-1.4-0.6-2.6-1.3-3.3-2c-0.7-0.7-1.3-1.4-1.6-2.3c-0.3-0.7-0.4-1.4-0.4-2.2c0-0.7,0.1-1.3,0.3-1.9c0.7-2.5,2-4.9,3.9-7.5
		c1.9-2.6,3.8-5.1,5.8-7.5c2-2.3,3.9-4.5,5.6-6.4c1.7-1.9,2.9-3.3,3.3-4.2c-1-0.4-1.9-1-2.5-1.9c-0.7-0.7-1.2-1.6-1.3-2.6
		c-0.1-1.2-0.1-2.2,0.3-3c0.3-0.9,0.9-1.6,1.4-2c0.7-0.4,1.4-0.7,2.3-0.9c0.9-0.1,1.6,0,2.3,0.3c0.9,0.4,1.4,1,1.9,2
		c0.4,0.9,0.4,1.9,0.3,2.9c0.6,0.6,1.4,1.2,2.5,1.4s1.9,0.4,2.6,0.6c1,0.1,2,0.1,2.9,0.1c1.2-0.9,2.2-1.4,3-1.7
		c1-0.3,1.9-0.4,2.7-0.4c0.9,0,1.7,0.1,2.5,0.6c0.7,0.3,1.6,0.7,2.5,1.2c-7.2,8.1-12.7,14.9-16.5,20.7c-3.6,5.6-5.6,9.7-5.9,12
		c1.3,0.1,2.9-0.1,4.8-1c1.9-0.7,3.8-1.7,5.8-3.2c2-1.3,4.1-2.9,6.1-4.6s4.1-3.6,5.9-5.6L680.1,310.2z"/>
	<path d="M717.9,310.5c-2,2.3-4.2,4.5-6.4,6.5c-2.2,2-4.3,3.9-6.5,5.4c-2.2,1.6-4.2,2.7-6.2,3.6s-3.8,1.3-5.4,1.3
		c-1.3-1.2-2-2.9-1.9-5.2c0-2.3,0.7-5.1,1.9-8.1c-1.2,1.4-2.5,2.7-3.9,4.1c-1.4,1.3-2.9,2.6-4.5,3.8s-3.2,2.3-4.8,3.3
		c-1.6,1-3.2,1.7-4.8,2.3c-1.4-1.2-2.5-2.9-2.7-5.1c-0.3-2.2-0.1-4.5,0.4-6.9c0.6-2.5,1.7-4.8,3.3-7.1c1.6-2.3,3.5-4.2,5.8-5.8
		c2.3-1.4,4.9-2.5,8-2.7c2.9-0.3,6.2,0.3,9.7,1.7c2.7-4.2,4.3-7.4,4.8-9.5s-0.4-2.7-2.7-2c-0.9,0.3-2,0.9-3.3,1.7
		c-1.3,0.9-2.7,1.7-4.2,2.5c-1.4,0.9-2.9,1.6-4.3,2c-1.4,0.6-2.7,0.7-3.8,0.4c-0.4,0-0.7-0.4-1.2-1c-0.3-0.6-0.6-1.3-0.7-2.2
		s-0.3-1.7-0.3-2.7s0.1-1.9,0.4-2.7c0.7,0.7,1.9,1,3.2,1c1.3,0,2.9-0.1,4.6-0.4c1.7-0.3,3.5-0.6,5.4-1c1.9-0.4,3.8-0.6,5.5-0.7
		c1.7,0,3,0.3,4.1,1.2c1,0.7,1.9,1.7,2.3,2.7c0.6,1,0.9,2.2,1,3.2c0.1,1,0.1,1.7-0.1,2.2c-1,2.3-2.2,4.5-3.8,6.7
		c-1.4,2.2-3,4.3-4.5,6.4c-1.4,2.2-2.9,4.2-4.1,6.4c-1.2,2.2-2,4.5-2.3,6.8c1.3,0.1,2.7-0.1,4.3-0.9c1.6-0.7,3.2-1.6,4.9-2.7
		c1.7-1.2,3.5-2.6,5.2-4.3c1.7-1.7,3.5-3.5,5.2-5.5L717.9,310.5z M680.3,321.5c2.3-0.7,4.8-2.2,7.4-4.3c2.6-2.2,5.2-4.8,8-8
		c0.4-0.9,1-1.9,1.4-2.9c0.6-1,1.2-2,1.9-3.3c-1.7-0.4-3.5-0.3-5.1,0.1c-1.7,0.6-3.2,1.3-4.6,2.5s-2.7,2.3-3.9,3.9
		c-1.2,1.4-2.2,3-3,4.5c-0.9,1.4-1.4,2.9-1.7,4.2C680.3,319.6,680.1,320.6,680.3,321.5z"/>
	<path d="M742.2,308.6c0.7,0,1.2,0.1,1.6,0.1c0.3,0.1,0.4,0.1,0.6,0.3c0,0.1,0,0.3,0,0.4c-0.1,0.1-0.1,0.3-0.4,0.4
		c-2.3,2.6-4.6,4.9-7.1,7.2c-2.5,2.3-4.9,4.2-7.4,5.8c-2.5,1.6-4.9,2.7-7.4,3.6c-2.5,0.9-4.8,1-7.1,0.7c-1.4-0.4-2.6-1.3-3.3-2.5
		c-0.7-1.3-1.2-2.7-1.3-4.2c-0.1-1.6-0.1-3.2,0-4.6c0.1-1.6,0.4-2.9,0.7-4.1c0.6-2.9,1.7-5.8,3.2-8.5c1.4-2.9,3.2-5.4,5.2-7.7
		c2-2.3,4.2-4.2,6.7-5.8c2.5-1.6,4.8-2.5,7.4-2.7c1,0,1.9,0.3,2.6,1c0.7,0.7,1.2,1.6,1.6,2.7c0.4,1.2,0.6,2.5,0.6,3.9
		c0,1.4,0,2.9-0.1,4.2c-0.1,1.3-0.4,2.7-0.7,3.9c-0.3,1.2-0.7,2.2-1.2,2.7c-0.1,0.3-0.6,0.4-1.3,0.7s-1.4,0.4-2.3,0.6
		c-0.9,0.1-1.7,0-2.6-0.1c-0.9-0.1-1.7-0.6-2.3-1.2c0.7-0.4,1.6-1.3,2.3-2.6c0.9-1.3,1.6-2.5,2.2-3.8c0.7-1.3,1.2-2.3,1.4-3.3
		c0.3-1,0.3-1.4,0.1-1.3c-2.2,0.7-4.3,1.9-6.5,3.6c-2.2,1.7-4.1,3.6-5.8,5.9c-1.7,2.3-3.2,4.9-4.3,7.7s-1.7,5.8-1.7,8.7
		c0,1.2,0.3,1.9,0.9,2.5c0.6,0.4,1.2,0.9,2,0.9c0.7,0.1,1.6,0.1,2.5,0c0.9-0.1,1.4-0.3,2-0.4c3.5-1.2,6.8-3,10-5.5
		C735.7,315.1,739,312.1,742.2,308.6z"/>
	<path d="M775.3,264.1c-2,1.9-4.1,4.2-6.1,6.9c-2.2,2.7-4.2,5.6-6.4,8.8c-2.2,3.2-4.2,6.4-6.2,9.8c-2,3.5-4.1,6.8-5.8,10
		c-1.9,3.3-3.6,6.4-5.1,9.4s-2.9,5.8-3.9,8.1c1.2-2,2.7-4.5,4.9-7.2c2.2-2.7,4.5-5.6,7.1-8.4c2.6-2.9,5.2-5.5,8-8.1
		c2.7-2.6,5.2-4.8,7.4-6.5c1.2-0.9,2.2-1.2,3.2-1.2c1,0,1.9,0.3,2.7,0.7c0.9,0.4,1.4,1.2,2,1.7c0.6,0.7,1,1.3,1.2,1.9
		c-1.3,0.6-2.7,1.4-4.2,2.3c-1.6,0.9-3.2,1.9-4.9,3c-1.7,1.2-3.5,2.3-5.2,3.8c-1.7,1.3-3.6,2.7-5.4,4.2c-0.7,2-1.2,4.2-1.4,6.4
		c-0.1,2.2-0.1,4.3,0,6.2c0.1,2,0.4,3.6,1,5.1c0.4,1.4,0.9,2.3,1.4,2.7c1.4-0.6,3-1.3,4.6-2.3c1.6-1,3.3-2.3,4.9-3.8
		c1.6-1.4,3.3-3,4.8-4.6c1.6-1.6,3-3.3,4.3-4.9l1.2,2.3c-1.9,2.3-3.8,4.5-5.8,6.5c-2,2.2-4.1,3.9-6.1,5.5c-2,1.6-3.8,2.9-5.5,3.8
		c-1.7,0.9-3,1.3-4.2,1.2c-1-0.1-1.9-0.9-2.7-2c-0.9-1.2-1.6-2.6-2.2-4.3c-0.6-1.7-1-3.5-1.4-5.5c-0.3-1.9-0.4-3.8-0.4-5.4
		c-2.7,2.9-5.1,5.9-6.9,8.8s-2.9,5.8-3,8.4c-3,0.3-4.6-0.7-4.6-3.2c0-1.3,0.1-2.9,0.4-4.8c0.3-1.9,0.9-4.3,1.9-7.1
		c0.9-2.7,2.2-5.9,3.8-9.7s3.6-8,6.1-12.9c1.6-3.2,3.3-6.2,4.9-9.3c1.7-3,3.2-5.6,4.6-8c1.4-2.3,2.6-4.3,3.6-5.8
		c1-1.6,1.6-2.5,1.9-2.7c0.6-0.9,1.4-1.4,2.5-1.7c1-0.3,2-0.3,3.2-0.1s2.2,0.4,3.3,0.7C773.5,263.2,774.5,263.6,775.3,264.1z"/>
	<path d="M808.9,309.6c-5.2,6.4-10.6,11-15.8,14c-5.2,3-10.1,4.6-14.5,4.8c-0.4,0-1.3,0-2.5-0.1c-1.2,0-2.3-0.3-3.6-0.9
		c-1.2-0.6-2.3-1.3-3.3-2.5c-1-1.2-1.4-2.7-1.3-4.9c0-1.7,0.6-3.5,1.6-5.4c1-1.9,2.5-3.6,4.2-5.2c1.7-1.6,3.8-3.2,6.1-4.5
		c2.3-1.3,4.6-2.3,7.1-2.9c-1.6-0.4-2.7-1.3-3.6-2.6c-0.7-1.3-1-2.6-0.7-4.2c0.3-1.4,1-3,2.5-4.5c1.3-1.4,3.3-2.6,5.8-3.5
		c1.7-0.6,3.6-0.7,5.6-0.6c2,0.1,3.6,0.7,5.1,1.6s2.3,2,2.9,3.5c0.6,1.4,0.3,3-0.7,4.8c-0.6,0.9-1.3,1.3-2.2,1.6
		c-0.7,0.3-1.6,0.4-2.3,0.3c-0.7,0-1.6-0.3-2.3-0.6c-0.7-0.3-1.4-0.7-2.2-1c0.9-0.6,1.7-1.2,2.5-2c0.7-0.9,1.2-1.6,1.4-2.5
		c0.3-0.7,0.3-1.4,0.1-2c-0.3-0.6-0.9-0.7-1.9-0.7c-1.7,0.1-3,0.7-4.1,1.9c-1,1.2-1.7,2.5-2.2,3.9c-0.3,1.4-0.3,2.6,0.1,3.8
		s1.4,1.6,2.7,1.4c1.6-0.1,2.7,0,3.6,0.6c0.7,0.6,1.2,1.2,1,1.9s-0.6,1.3-1.4,1.7c-0.9,0.4-2.2,0.4-3.8,0.1c-2,0.1-4.2,1-6.4,2.3
		c-2.2,1.4-4.1,3-5.8,4.9c-1.7,1.9-2.9,3.8-3.8,5.6c-0.9,1.9-1,3.5-0.6,4.6c0.6,1.2,1.7,1.9,3.6,2c1.9,0.3,4.2-0.1,6.9-1.2
		s5.9-2.7,9.4-5.2c3.5-2.5,6.9-5.8,10.6-9.8L808.9,309.6z"/>
	<path d="M841.9,310.2c-2.3,2.3-4.6,4.6-7.2,6.8s-5.1,4.1-7.4,5.6c-2.3,1.6-4.5,2.9-6.5,3.6c-2,0.9-3.6,1.2-4.6,1
		c-1.2-1-1.9-2.6-1.9-4.6s0.3-4.3,1.3-7.1c0.9-2.7,2.2-5.6,4.1-9c1.7-3.3,3.9-6.8,6.5-10.4c-1.2,0-2.3-0.1-3-0.1
		c-0.9,0-1.7-0.1-2.9-0.6c-2.5,3.5-4.8,6.8-7.2,9.8c-2.3,3-4.5,5.9-6.1,8.5c-1.7,2.6-2.9,5.2-3.6,7.5c-0.7,2.3-0.6,4.6,0.3,6.7
		c-1.4-0.6-2.6-1.3-3.3-2c-0.7-0.7-1.3-1.4-1.6-2.3c-0.3-0.7-0.4-1.4-0.4-2.2c0-0.7,0.1-1.3,0.3-1.9c0.7-2.5,2-4.9,3.9-7.5
		c1.9-2.6,3.8-5.1,5.8-7.5c2-2.3,3.9-4.5,5.6-6.4s2.9-3.3,3.3-4.2c-1-0.4-1.9-1-2.5-1.9c-0.7-0.7-1.2-1.6-1.3-2.6
		c-0.1-1.2-0.1-2.2,0.3-3c0.3-0.9,0.9-1.6,1.4-2c0.7-0.4,1.4-0.7,2.3-0.9c0.9-0.1,1.6,0,2.3,0.3c0.9,0.4,1.4,1,1.9,2
		c0.4,0.9,0.4,1.9,0.3,2.9c0.6,0.6,1.4,1.2,2.5,1.4c1,0.3,1.9,0.4,2.6,0.6c1,0.1,2,0.1,2.9,0.1c1.2-0.9,2.2-1.4,3-1.7
		c1-0.3,1.9-0.4,2.7-0.4c0.9,0,1.7,0.1,2.5,0.6c0.7,0.3,1.6,0.7,2.5,1.2c-7.2,8.1-12.7,14.9-16.5,20.7c-3.6,5.6-5.6,9.7-5.9,12
		c1.3,0.1,2.9-0.1,4.8-1c1.9-0.7,3.8-1.7,5.8-3.2c2-1.3,4.1-2.9,6.1-4.6c2-1.7,4.1-3.6,5.9-5.6L841.9,310.2z"/>
</g>
<image overflow="visible" enable-background="new    " width="200" height="200" xlink:href="../../../../../../../../../Users/Divine/Downloads/Survivors/ac463885-4f16-4a58-ad29-d6e40e2a8116_200x200.png"  transform="matrix(0.7501 0 0 0.7501 -7846.0103 -7968.7305)">
</image>
<g>
	<path fill="#7E7E7E" d="M41.3,317.8c6.5,0,11.5,5.1,11.5,11.6c0,6.5-5.1,11.5-11.6,11.5c-6.7,0-11.6-5-11.5-11.7
		C29.8,322.6,34.7,317.8,41.3,317.8z M34.6,329.1c-0.1,4.1,2.7,7,6.6,7c3.8,0,6.8-2.9,6.9-6.7c0.1-3.8-2.9-6.8-6.6-6.9
		C37.5,322.5,34.6,325.2,34.6,329.1z"/>
	<path fill="#7E7E7E" d="M39.7,271.5c-6.5,0-11.5-5.1-11.5-11.6c0-6.5,5.3-11.6,11.9-11.5c6.4,0.1,11.3,5.2,11.2,11.8
		C51.3,266.8,46.4,271.5,39.7,271.5z M46.6,260.1c0-3.9-2.7-6.9-6.5-6.9c-3.8-0.1-7,3-7,6.9c0,3.7,3,6.7,6.8,6.7
		C43.9,266.7,46.6,264.1,46.6,260.1z"/>
	<path fill="#7E7E7E" d="M22.2,311.8c-0.1,6.7-5.1,11.4-12,11.3C4,323-1.1,317.7-1,311.4c0.1-6.5,5.3-11.4,12.1-11.3
		C17.5,300.2,22.3,305.3,22.2,311.8z M17.3,311.6c0-4.1-2.6-6.8-6.6-6.8c-3.9,0-7,3-7,6.8c0.1,3.7,3.1,6.7,6.9,6.7
		C14.5,318.4,17.3,315.6,17.3,311.6z"/>
	<path fill="#7E7E7E" d="M59,277c0-6.5,4.9-11.6,11.2-11.7c6.7-0.1,12,5,12,11.5c0,6.4-5.2,11.8-11.5,11.8
		C64.3,288.7,59,283.4,59,277z M63.8,276.7c-0.1,4,2.8,7.1,6.6,7.2c3.7,0,6.9-3.2,6.9-7c0-3.7-3.1-6.8-6.7-6.9
		C66.9,269.9,63.8,272.9,63.8,276.7z"/>
	<path fill="#7E7E7E" d="M9.9,289.8c-6.6,0-11.5-4.9-11.5-11.5c0-6.5,5.1-11.5,11.6-11.5c6.5,0,11.5,5.1,11.5,11.6
		C21.5,284.9,16.6,289.8,9.9,289.8z M9.9,285c4,0,6.8-2.7,6.9-6.6c0.1-3.9-2.9-7-6.8-7c-3.8,0-6.7,2.9-6.7,6.8
		C3.2,282.2,6,284.9,9.9,285z"/>
	<path fill="#7E7E7E" d="M82.7,311.1c-0.1,6.3-5.2,11.5-11.4,11.5c-6.5,0-11.7-5.3-11.7-11.8c0-6.6,5.2-11.4,12.1-11.3
		C78.1,299.6,82.7,304.4,82.7,311.1z M77.9,310.8c0-3.8-3-6.9-6.7-6.9c-3.7,0-6.8,3.1-6.8,6.8c0,3.8,3,7,6.7,7
		C74.9,317.8,77.9,314.8,77.9,310.8z"/>
	<path fill="#52C8FA" d="M38.5,306.2c0-1.3,1-2.2,2.3-2.2c1.3,0,2.3,1.1,2.2,2.3c0,1.3-1.1,2.3-2.3,2.2
		C39.4,308.6,38.5,307.6,38.5,306.2z"/>
	<path fill="#52C8FA" d="M42.6,283c0,1.3-0.9,2.2-2.3,2.2c-1.3,0-2.3-1-2.3-2.3c0-1.3,1.1-2.3,2.4-2.3
		C41.7,280.7,42.6,281.7,42.6,283z"/>
	<path fill="#52C8FA" d="M32.7,300.4c0,1.3-0.9,2.3-2.2,2.3c-1.3,0-2.3-1-2.3-2.3c0-1.3,1-2.3,2.3-2.3
		C31.9,298.1,32.7,299,32.7,300.4z"/>
	<path fill="#52C8FA" d="M48.4,288.6c0-1.3,1-2.3,2.3-2.3c1.2,0,2.3,1.1,2.3,2.3c0,1.3-1.1,2.4-2.3,2.4
		C49.3,291,48.4,289.9,48.4,288.6z"/>
	<path fill="#52C8FA" d="M30.2,291.4c-1.3,0-2.2-0.9-2.2-2.3c0-1.3,1-2.3,2.3-2.3c1.3,0,2.3,1,2.3,2.4
		C32.5,290.5,31.6,291.4,30.2,291.4z"/>
	<path fill="#52C8FA" d="M53.1,300.1c0,1.3-1,2.3-2.3,2.3c-1.2,0-2.3-1.1-2.2-2.4c0-1.3,1.1-2.3,2.3-2.3
		C52.1,297.8,53.1,298.8,53.1,300.1z"/>
</g>
</svg>
